<svg xmlns="http://www.w3.org/2000/svg" width="276.748" height="276.748" viewBox="0 0 276.748 276.748">
  <g id="whatsapp" transform="translate(0 0)">
    <rect id="Rectangle_538" data-name="Rectangle 538" width="276.748" height="276.748" rx="15" transform="translate(0)" fill="#1bd741"/>
    <g id="Group_53" data-name="Group 53" transform="translate(46.006 45.906)">
      <path id="Path_68" data-name="Path 68" d="M68.494,253.257l12.938-45.951a92.212,92.212,0,1,1,34.45,33.753Zm49.81-28.981L121.128,226a76.581,76.581,0,1,0-24.653-24.1l1.9,2.961-7.451,26.463Z" transform="translate(-68.494 -68.321)" fill="#fff"/>
      <path id="Path_69" data-name="Path 69" d="M168.325,153.163l-5.986-.327a7.24,7.24,0,0,0-5.146,1.761c-2.9,2.52-7.542,7.392-8.968,13.74-2.125,9.466,1.16,21.058,9.66,32.648s24.342,30.138,52.355,38.059c9.027,2.552,16.128.832,21.606-2.672a19.325,19.325,0,0,0,8.409-12.268l.955-4.464a3.1,3.1,0,0,0-1.734-3.466l-20.231-9.325a3.1,3.1,0,0,0-3.754.922l-7.941,10.3a2.272,2.272,0,0,1-2.554.76c-5.438-1.911-23.657-9.541-33.653-28.8a2.3,2.3,0,0,1,.289-2.561l7.59-8.781a3.1,3.1,0,0,0,.505-3.247l-8.72-20.4A3.1,3.1,0,0,0,168.325,153.163Z" transform="translate(-101.751 -103.849)" fill="#fff"/>
    </g>
  </g>
</svg>
